TotalTTV,TTVBTC,TTVETH,TTVOTH,log,time
40304167865.6483,14042700000.0,3017620000.0,23243847865.6483,1,2017-12-30T18:33:25.945638+05:30
40304167865.6483,14042700000.0,3017620000.0,23243847865.6483,2,2017-12-30T18:33:52.869866+05:30
40304167865.6483,14042700000.0,3017620000.0,23243847865.6483,960,2017-12-30T18:33:52.869866+05:30
40304167865.6483,14042700000.0,3017620000.0,23243847865.6483,1920,2017-12-30T18:33:52.869866+05:30
40304167865.6483,14042700000.0,3017620000.0,23243847865.6483,4800,2017-12-30T18:33:52.869866+05:30
40304167865.6483,14042700000.0,3017620000.0,23243847865.6483,9600,2017-12-30T18:33:52.869866+05:30
40304167865.6483,14042700000.0,3017620000.0,2324384w7865.6483,19200,2017-12-30T18:33:52.869866+05:30
42949827997.356285,14299200000.0,6001760000.0,22648867997.356293,3,2018-01-12T19:03:21.860578+05:30
43047650079.93745,14326100000.0,6023460000.0,22698090079.937447,4,2018-01-12T19:12:27.353300+05:30
43047650079.93745,14326100000.0,6023460000.0,22698090079.937447,5,2018-01-12T19:15:10.092110+05:30
43242290731.790764,14352300000.0,6082360000.0,22807630731.790764,6,2018-01-12 19:17:42+05:30
